{
	"configurations" : 
	[
		{
			"directories" : 
			[
				{
					"build" : ".",
					"jsonFile" : "directory-.-Debug-d0094a50bb2071803777.json",
					"minimumCMakeVersion" : 
					{
						"string" : "3.22"
					},
					"projectIndex" : 0,
					"source" : ".",
					"targetIndexes" : 
					[
						0
					]
				}
			],
			"name" : "Debug",
			"projects" : 
			[
				{
					"directoryIndexes" : 
					[
						0
					],
					"name" : "cs5010_su2022_a03_carroll",
					"targetIndexes" : 
					[
						0
					]
				}
			],
			"targets" : 
			[
				{
					"directoryIndex" : 0,
					"id" : "cs5010_su2022_a03_carroll::@6890427a1f51a3e7e1df",
					"jsonFile" : "target-cs5010_su2022_a03_carroll-Debug-dddd7b0a4c7f597b4fde.json",
					"name" : "cs5010_su2022_a03_carroll",
					"projectIndex" : 0
				}
			]
		}
	],
	"kind" : "codemodel",
	"paths" : 
	{
		"build" : "C:/Users/dacar/Desktop/CS5010_class_projects/cs5010_su2022_a03_carroll/cmake-build-debug-visual-studio",
		"source" : "C:/Users/dacar/Desktop/CS5010_class_projects/cs5010_su2022_a03_carroll"
	},
	"version" : 
	{
		"major" : 2,
		"minor" : 3
	}
}
