{
	"kind" : "toolchains",
	"toolchains" : 
	[
		{
			"compiler" : 
			{
				"id" : "MSVC",
				"implicit" : 
				{
					"includeDirectories" : [],
					"linkDirectories" : [],
					"linkFrameworkDirectories" : [],
					"linkLibraries" : []
				},
				"path" : "C:/Program Files (x86)/Microsoft Visual Studio/2017/Community/VC/Tools/MSVC/14.16.27023/bin/Hostx86/x86/cl.exe",
				"version" : "19.16.27048.0"
			},
			"language" : "C",
			"sourceFileExtensions" : 
			[
				"c",
				"m"
			]
		},
		{
			"compiler" : 
			{
				"id" : "MSVC",
				"implicit" : 
				{
					"includeDirectories" : [],
					"linkDirectories" : [],
					"linkFrameworkDirectories" : [],
					"linkLibraries" : []
				},
				"path" : "C:/Program Files (x86)/Microsoft Visual Studio/2017/Community/VC/Tools/MSVC/14.16.27023/bin/Hostx86/x86/cl.exe",
				"version" : "19.16.27048.0"
			},
			"language" : "CXX",
			"sourceFileExtensions" : 
			[
				"C",
				"M",
				"c++",
				"cc",
				"cpp",
				"cxx",
				"mm",
				"mpp",
				"CPP",
				"ixx",
				"cppm"
			]
		},
		{
			"compiler" : 
			{
				"implicit" : {},
				"path" : "C:/Program Files (x86)/Windows Kits/10/bin/10.0.16299.0/x86/rc.exe"
			},
			"language" : "RC",
			"sourceFileExtensions" : 
			[
				"rc",
				"RC"
			]
		}
	],
	"version" : 
	{
		"major" : 1,
		"minor" : 0
	}
}
